{
  "extends": ["gitlab>AKorezin/renovate-config:containers-renovate"],
  "packageRules": [
    {
      "matchPackageNames": ["node"],
      "matchUpdateTypes": "major",
      "enabled": false
    },
    {
      "matchPackageNames": ["libyal/libvhdi"],
      "ignoreUnstable": false
    }
  ]
}
